0	10	0	141	152
1	10	0	145	156
2	10	0	150	161
3	10	0	153	164
4	10	0	154	165
5	10	0	158	169
6	141	0	28	170
7	164	0	6	171
8	164	0	7	172
9	165	0	8	174
10	167	0	7	175
11	169	0	9	179
12	172	0	8	181
13	175	0	7	183
14	179	0	4	184
15	180	0	3	184
16	182	0	1	184
17	182	0	2	185
18	182	0	5	188
19	183	0	4	188
20	174	8	11	186
21	176	8	10	187
22	178	8	9	188
23	180	8	7	188
24	180	8	7	188
25	181	8	6	188
26	183	8	7	191
27	52	71	71	124
28	29	82	80	110
29	30	82	80	111
30	29	83	83	113
31	29	84	83	113
32	31	85	81	113
33	31	86	79	111
34	31	87	80	112
35	28	87	82	111
36	28	88	83	112
37	27	89	86	114
38	27	89	88	116
39	29	89	88	118
40	30	89	86	117
41	31	90	87	119
42	34	90	84	119
43	38	91	82	121
44	38	93	82	121
45	40	93	82	123
46	43	93	78	122
47	43	95	80	124
48	46	95	81	128
49	49	96	79	129
50	51	97	78	130
51	55	97	75	131
52	56	98	74	131
53	56	100	73	130
54	55	103	74	130
55	61	97	70	132
56	65	97	66	132
57	66	98	66	133
58	69	98	64	134
59	72	98	63	136
60	77	100	60	138
61	76	101	61	138
62	139	39	0	139
63	136	29	0	136
64	131	33	3	134
65	134	34	0	134
66	132	33	0	132
67	131	36	3	134
68	131	35	3	134
69	133	36	1	134
70	131	38	1	132
71	130	39	3	133
72	128	39	4	132
73	125	42	7	132
74	122	44	9	131
75	120	45	12	132
76	114	49	17	131
77	110	51	21	131
78	109	52	23	132
79	108	53	25	133
80	105	55	27	132
81	99	57	29	128
82	101	55	26	127
83	34	88	58	92
84	20	95	67	87
85	22	95	65	87
86	16	98	71	87
87	16	98	73	89
88	17	98	75	92
89	21	96	70	91
90	17	98	74	91
91	15	100	78	93
92	15	101	78	93
93	16	103	78	94
94	16	103	82	98
95	16	102	88	104
96	22	101	82	104
97	23	101	80	103
98	23	100	80	103
99	30	96	75	105
100	32	94	71	103
101	32	94	76	108
102	36	90	74	110
103	34	90	77	111
